<?xml version="1.0" encoding="utf-8"?>
<!-- Generator: Adobe Illustrator 17.1.0, SVG Export Plug-In . SVG Version: 6.00 Build 0)  -->
<!DOCTYPE svg PUBLIC "-//W3C//DTD SVG 1.1//EN" "http://www.w3.org/Graphics/SVG/1.1/DTD/svg11.dtd">
<svg version="1.1" id="Layer_1" xmlns="http://www.w3.org/2000/svg" xmlns:xlink="http://www.w3.org/1999/xlink" x="0px" y="0px"
	 viewBox="0 0 168.4 100" enable-background="new 0 0 168.4 100" xml:space="preserve">
<path opacity="0.49" fill="#FFFFFF" d="M16.8,49.2c2.8,0,5.4,0.7,7.7,1.9C28,39.8,38.5,31.6,51,31.6c1.2,0,2.4,0.1,3.5,0.2
	c2.1-8.4,9.4-14.7,18.2-15.4c-0.3-1.1-0.5-2.4-0.5-3.6C72.2,5.7,77.9,0,85,0c5.4,0,10.1,3.4,11.9,8.1c2-0.5,4.2-0.8,6.4-0.8
	c15.1,0,27.4,12.3,27.4,27.4c0,0.8,0,1.5-0.1,2.2c0.6-0.1,1.1-0.1,1.7-0.1c7.1,0,12.8,5.7,12.8,12.8c0,0,0,0.1,0,0.1
	c1.9-0.7,3.9-1.1,6-1.1c9.5,0,17.3,7.7,17.3,17.3s-7.7,17.3-17.3,17.3c-3.3,0-6.3-0.9-8.9-2.5c-3.6,10.8-13.9,18.7-25.9,18.7
	c-9.4,0-17.8-4.8-22.7-12.1c-3,2.1-6.6,3.3-10.5,3.3c-4.6,0-8.7-1.7-11.9-4.4c-4.3,7.5-12.4,12.6-21.6,12.6
	c-11.5,0-21.2-7.8-24.1-18.5c-2.5,1.5-5.5,2.4-8.6,2.4C7.5,82.7,0,75.2,0,66C0,56.7,7.5,49.2,16.8,49.2z"/>
</svg>
